Library\Bee\artifacts\mvdfrm\Unity.Services.Core.Configuration.ref.dll_D8CEAF2FC2D64434.mvfrm
Library\Bee\artifacts\mvdfrm\Unity.Services.Core.Device.ref.dll_2500B8AE3957BAFE.mvfrm
Library\Bee\artifacts\mvdfrm\Unity.Services.Core.Environments.Internal.ref.dll_53CDD0593CD37D99.mvfrm
Library\Bee\artifacts\mvdfrm\Unity.Services.Core.Environments.ref.dll_9371070AEE137978.mvfrm
Library\Bee\artifacts\mvdfrm\Unity.Services.Core.Internal.ref.dll_BF666932C0B27755.mvfrm
Library\Bee\artifacts\mvdfrm\Unity.Services.Core.Scheduler.ref.dll_B73D24A010F16869.mvfrm
Library\Bee\artifacts\mvdfrm\Unity.Services.Core.Telemetry.ref.dll_C3323D92A9E59C57.mvfrm
Library\Bee\artifacts\mvdfrm\Unity.Services.Core.Threading.ref.dll_BAE9B3B128749D96.mvfrm
Library\Bee\artifacts\mvdfrm\Unity.Services.Core.ref.dll_FF91F9BC6398EB7C.mvfrm
Library\Bee\artifacts\mvdfrm\UnityEngine.UI.ref.dll_AFC2E85BC2EDBC0B.mvfrm
Library\Bee\artifacts\mvdfrm\UnityEngine.AccessibilityModule.dll_E0403191D6C693E4.mvfrm
Library\Bee\artifacts\mvdfrm\UnityEngine.AIModule.dll_1AD991BFB9B87756.mvfrm
Library\Bee\artifacts\mvdfrm\UnityEngine.AndroidJNIModule.dll_CB51D30DE16CE814.mvfrm
Library\Bee\artifacts\mvdfrm\UnityEngine.AnimationModule.dll_793D43A97D9DD98A.mvfrm
Library\Bee\artifacts\mvdfrm\UnityEngine.ARModule.dll_D44C56C316D5D61F.mvfrm
Library\Bee\artifacts\mvdfrm\UnityEngine.AssetBundleModule.dll_DA8311BA3CCCE5F8.mvfrm
Library\Bee\artifacts\mvdfrm\UnityEngine.AudioModule.dll_72C78B85B3DEC7FC.mvfrm
Library\Bee\artifacts\mvdfrm\UnityEngine.ClothModule.dll_D9AFE8808DFBA6E0.mvfrm
Library\Bee\artifacts\mvdfrm\UnityEngine.CoreModule.dll_09FB83CFBBBE286D.mvfrm
Library\Bee\artifacts\mvdfrm\UnityEngine.CrashReportingModule.dll_2FB163A314D5C225.mvfrm
Library\Bee\artifacts\mvdfrm\UnityEngine.DirectorModule.dll_22B33C5487FEA9CA.mvfrm
Library\Bee\artifacts\mvdfrm\UnityEngine.dll_FA5D54414BB83598.mvfrm
Library\Bee\artifacts\mvdfrm\UnityEngine.DSPGraphModule.dll_28049DBDFA5F7AEB.mvfrm
Library\Bee\artifacts\mvdfrm\UnityEngine.GameCenterModule.dll_F59F1D28A7ADD905.mvfrm
Library\Bee\artifacts\mvdfrm\UnityEngine.GIModule.dll_B315DACD55675F70.mvfrm
Library\Bee\artifacts\mvdfrm\UnityEngine.GridModule.dll_E76C9FBDD412BE64.mvfrm
Library\Bee\artifacts\mvdfrm\UnityEngine.HotReloadModule.dll_FA8601AF58D0F50C.mvfrm
Library\Bee\artifacts\mvdfrm\UnityEngine.ImageConversionModule.dll_08AAAE43D8C6E797.mvfrm
Library\Bee\artifacts\mvdfrm\UnityEngine.IMGUIModule.dll_AB272AEC7A105BDD.mvfrm
Library\Bee\artifacts\mvdfrm\UnityEngine.InputLegacyModule.dll_6BC82CD8D4BE9BE9.mvfrm
Library\Bee\artifacts\mvdfrm\UnityEngine.InputModule.dll_D93D53362A16ECA0.mvfrm
Library\Bee\artifacts\mvdfrm\UnityEngine.JSONSerializeModule.dll_4057BACDD601F46E.mvfrm
Library\Bee\artifacts\mvdfrm\UnityEngine.LocalizationModule.dll_FFDE86BB50EDD2B7.mvfrm
Library\Bee\artifacts\mvdfrm\UnityEngine.ParticleSystemModule.dll_82C3ACEF82E74DB3.mvfrm
Library\Bee\artifacts\mvdfrm\UnityEngine.PerformanceReportingModule.dll_6FEC6518658F6A2C.mvfrm
Library\Bee\artifacts\mvdfrm\UnityEngine.Physics2DModule.dll_C5E3339A1E9AD11F.mvfrm
Library\Bee\artifacts\mvdfrm\UnityEngine.PhysicsModule.dll_A9FA268675A98A4D.mvfrm
Library\Bee\artifacts\mvdfrm\UnityEngine.ProfilerModule.dll_54F9758B215830D7.mvfrm
Library\Bee\artifacts\mvdfrm\UnityEngine.RuntimeInitializeOnLoadManagerInitializerModule.dll_18416F33B6A4FFE8.mvfrm
Library\Bee\artifacts\mvdfrm\UnityEngine.ScreenCaptureModule.dll_5A3F6852EA6E20D0.mvfrm
Library\Bee\artifacts\mvdfrm\UnityEngine.SharedInternalsModule.dll_8CBBED194FF4E2E7.mvfrm
Library\Bee\artifacts\mvdfrm\UnityEngine.SpriteMaskModule.dll_DECB8FB8C91D6E7F.mvfrm
Library\Bee\artifacts\mvdfrm\UnityEngine.SpriteShapeModule.dll_F3E43F14F26F1E02.mvfrm
Library\Bee\artifacts\mvdfrm\UnityEngine.StreamingModule.dll_2DD230F9CD2590C8.mvfrm
Library\Bee\artifacts\mvdfrm\UnityEngine.SubstanceModule.dll_0A7D454318788ED6.mvfrm
Library\Bee\artifacts\mvdfrm\UnityEngine.SubsystemsModule.dll_4978F61A97655692.mvfrm
Library\Bee\artifacts\mvdfrm\UnityEngine.TerrainModule.dll_C440A1F54B67D33B.mvfrm
Library\Bee\artifacts\mvdfrm\UnityEngine.TerrainPhysicsModule.dll_833E55C29C2A4840.mvfrm
Library\Bee\artifacts\mvdfrm\UnityEngine.TextCoreFontEngineModule.dll_182311A97A3C3B4B.mvfrm
Library\Bee\artifacts\mvdfrm\UnityEngine.TextCoreTextEngineModule.dll_600B481B09BFF469.mvfrm
Library\Bee\artifacts\mvdfrm\UnityEngine.TextRenderingModule.dll_837EDA5DA1A5A0C5.mvfrm
Library\Bee\artifacts\mvdfrm\UnityEngine.TilemapModule.dll_633D09766324B444.mvfrm
Library\Bee\artifacts\mvdfrm\UnityEngine.TLSModule.dll_A3E7255DE178FFE1.mvfrm
Library\Bee\artifacts\mvdfrm\UnityEngine.UIElementsModule.dll_4DB757829A919289.mvfrm
Library\Bee\artifacts\mvdfrm\UnityEngine.UIElementsNativeModule.dll_A71D0EB5A1337C40.mvfrm
Library\Bee\artifacts\mvdfrm\UnityEngine.UIModule.dll_164D2FED15FF7D02.mvfrm
Library\Bee\artifacts\mvdfrm\UnityEngine.UmbraModule.dll_ED9C379E4105736F.mvfrm
Library\Bee\artifacts\mvdfrm\UnityEngine.UNETModule.dll_9CA1CBB908CD1DE6.mvfrm
Library\Bee\artifacts\mvdfrm\UnityEngine.UnityAnalyticsCommonModule.dll_0B2B225C7F78088A.mvfrm
Library\Bee\artifacts\mvdfrm\UnityEngine.UnityAnalyticsModule.dll_A2631DB92F0E9FAF.mvfrm
Library\Bee\artifacts\mvdfrm\UnityEngine.UnityConnectModule.dll_2F54CB6202720DA3.mvfrm
Library\Bee\artifacts\mvdfrm\UnityEngine.UnityCurlModule.dll_AC59E4DAEDB1CB77.mvfrm
Library\Bee\artifacts\mvdfrm\UnityEngine.UnityTestProtocolModule.dll_C88528F2FF1C9B65.mvfrm
Library\Bee\artifacts\mvdfrm\UnityEngine.UnityWebRequestAssetBundleModule.dll_BA1B55E9ED686DC0.mvfrm
Library\Bee\artifacts\mvdfrm\UnityEngine.UnityWebRequestAudioModule.dll_E7E8B8F6EBFA34C4.mvfrm
Library\Bee\artifacts\mvdfrm\UnityEngine.UnityWebRequestModule.dll_1A49B5EDE3BB8216.mvfrm
Library\Bee\artifacts\mvdfrm\UnityEngine.UnityWebRequestTextureModule.dll_843DE3B679ACCB19.mvfrm
Library\Bee\artifacts\mvdfrm\UnityEngine.UnityWebRequestWWWModule.dll_2ACD8D76F97FB0D5.mvfrm
Library\Bee\artifacts\mvdfrm\UnityEngine.VehiclesModule.dll_9A7635D402287965.mvfrm
Library\Bee\artifacts\mvdfrm\UnityEngine.VFXModule.dll_24C5BDCCB7E6694E.mvfrm
Library\Bee\artifacts\mvdfrm\UnityEngine.VideoModule.dll_97D10FF07670E3A1.mvfrm
Library\Bee\artifacts\mvdfrm\UnityEngine.VRModule.dll_691F5672B7BA027A.mvfrm
Library\Bee\artifacts\mvdfrm\UnityEngine.WindModule.dll_804A5EF84CF4A6D6.mvfrm
Library\Bee\artifacts\mvdfrm\UnityEngine.XRModule.dll_9BDE197740F44FD8.mvfrm
Library\Bee\artifacts\mvdfrm\Unity.Burst.Cecil.dll_ADCE27B2564ACDCC.mvfrm
Library\Bee\artifacts\mvdfrm\Unity.Burst.Cecil.Mdb.dll_18856E90E0812409.mvfrm
Library\Bee\artifacts\mvdfrm\Unity.Burst.Cecil.Pdb.dll_2FD7E7005F36258C.mvfrm
Library\Bee\artifacts\mvdfrm\Unity.Burst.Cecil.Rocks.dll_13C207D6C6720F2C.mvfrm
Library\Bee\artifacts\mvdfrm\Unity.Burst.Unsafe.dll_8D7068C526E99107.mvfrm
Library\Bee\artifacts\mvdfrm\Unity.VisualScripting.Antlr3.Runtime.dll_E311A2F55E27104D.mvfrm